\relax 
\providecommand\hyper@newdestlabel[2]{}
\catcode `"\active 
\providecommand\HyperFirstAtBeginDocument{\AtBeginDocument}
\HyperFirstAtBeginDocument{\ifx\hyper@anchor\@undefined
\global\let\oldcontentsline\contentsline
\gdef\contentsline#1#2#3#4{\oldcontentsline{#1}{#2}{#3}}
\global\let\oldnewlabel\newlabel
\gdef\newlabel#1#2{\newlabelxx{#1}#2}
\gdef\newlabelxx#1#2#3#4#5#6{\oldnewlabel{#1}{{#2}{#3}}}
\AtEndDocument{\ifx\hyper@anchor\@undefined
\let\contentsline\oldcontentsline
\let\newlabel\oldnewlabel
\fi}
\fi}
\global\let\hyper@last\relax 
\gdef\HyperFirstAtBeginDocument#1{#1}
\providecommand\HyField@AuxAddToFields[1]{}
\providecommand\HyField@AuxAddToCoFields[2]{}
\citation{InfoDesign:2011}
\citation{Ipea:2013}
\citation{Newman:Peter}
\citation{Reis:2011}
\citation{Bookman:2012}
\citation{Sociesc:2014}
\citation{UTFPR:2011}
\citation{InfoDesign:2011}
\citation{Mashup:2009}
\citation{UbiBus:2012}
\select@language{brazil}
\@writefile{toc}{\select@language{brazil}}
\@writefile{lof}{\select@language{brazil}}
\@writefile{lot}{\select@language{brazil}}
\@writefile{toc}{\contentsline {section}{\numberline {1}\hskip -1em.~Relev\IeC {\^a}ncia do trabalho}{1}{section.1}}
\newlabel{sec:intro}{{1}{1}{\hskip -1em.~Relevância do trabalho}{section.1}{}}
\@writefile{brf}{\backcite{InfoDesign:2011}{{1}{1}{section.1}}}
\@writefile{brf}{\backcite{Ipea:2013}{{1}{1}{section.1}}}
\@writefile{brf}{\backcite{Newman:Peter}{{1}{1}{section.1}}}
\@writefile{brf}{\backcite{Reis:2011}{{1}{1}{section.1}}}
\@writefile{brf}{\backcite{Bookman:2012}{{1}{1}{section.1}}}
\@writefile{brf}{\backcite{Sociesc:2014}{{1}{1}{section.1}}}
\@writefile{brf}{\backcite{UTFPR:2011}{{1}{1}{section.1}}}
\@writefile{brf}{\backcite{InfoDesign:2011}{{1}{1}{section.1}}}
\@writefile{brf}{\backcite{Mashup:2009}{{1}{1}{section.1}}}
\@writefile{toc}{\contentsline {section}{\numberline {2}\hskip -1em.~Objetivos}{1}{section.2}}
\newlabel{sec:objetivos}{{2}{1}{\hskip -1em.~Objetivos}{section.2}{}}
\@writefile{toc}{\contentsline {subsection}{\numberline {2.1}\hskip -1em.~Objetivo geral}{1}{subsection.2.1}}
\@writefile{brf}{\backcite{UbiBus:2012}{{1}{2.1}{subsection.2.1}}}
\@writefile{toc}{\contentsline {subsection}{\numberline {2.2}\hskip -1em.~Objetivos espec\IeC {\'\i }ficos}{1}{subsection.2.2}}
\citation{UFSC:2014}
\@writefile{toc}{\contentsline {section}{\numberline {3}\hskip -1em.~Solu\IeC {\c c}\IeC {\~a}o proposta}{2}{section.3}}
\@writefile{brf}{\backcite{UFSC:2014}{{2}{3}{section.3}}}
\@writefile{toc}{\contentsline {section}{\numberline {4}\hskip -1em.~Cronograma de desenvolvimento}{2}{section.4}}
\newlabel{sec:cronograma}{{4}{2}{\hskip -1em.~Cronograma de desenvolvimento}{section.4}{}}
\@writefile{toc}{\contentsline {subsection}{\numberline {4.1}\hskip -1em.~Trabalho de conclus\IeC {\~a}o de curso I}{2}{subsection.4.1}}
\@writefile{lot}{\contentsline {table}{\numberline {1}{\ignorespaces Cronograma de atividades para o trabalho de conclus\IeC {\~a}o I. }}{2}{table.1}}
\newlabel{tab:cronograma1}{{1}{2}{Cronograma de atividades para o trabalho de conclusão I}{table.1}{}}
\@writefile{toc}{\contentsline {subsection}{\numberline {4.2}\hskip -1em.~Trabalho de conclus\IeC {\~a}o de curso II}{2}{subsection.4.2}}
\bibstyle{ieee}
\bibdata{MinhasReferencias}
\bibcite{UFSC:2014}{1}
\bibcite{UTFPR:2011}{2}
\bibcite{Bookman:2012}{3}
\bibcite{Sociesc:2014}{4}
\bibcite{Newman:Peter}{5}
\bibcite{Mashup:2009}{6}
\bibcite{Ipea:2013}{7}
\bibcite{Reis:2011}{8}
\bibcite{InfoDesign:2011}{9}
\bibcite{UbiBus:2012}{10}
\@writefile{lot}{\contentsline {table}{\numberline {2}{\ignorespaces Cronograma de atividades para o trabalho de conclus\IeC {\~a}o II. }}{3}{table.2}}
\newlabel{tab:cronograma2}{{2}{3}{Cronograma de atividades para o trabalho de conclusão II}{table.2}{}}
